%YAML 1.1
%TAG !u! tag:unity3d.com,2011:
--- !u!21 &2100000
Material:
  serializedVersion: 5
  m_ObjectHideFlags: 0
  m_PrefabParentObject: {fileID: 0}
  m_PrefabInternal: {fileID: 0}
  m_Name: WFXM_M_FlameSmall ScrollAdd
  m_Shader: {fileID: 4800000, guid: 7439add42f7e65b4dbc36568299dde17, type: 3}
  m_ShaderKeywords: 
  m_LightmapFlags: 5
  m_CustomRenderQueue: -1
  m_SavedProperties:
    serializedVersion: 2
    m_TexEnvs:
      data:
        first:
          name: _MainTex
        second:
          m_Texture: {fileID: 2800000, guid: 2a4b64d5a28398940b5d06d77c2dbe57, type: 3}
          m_Scale: {x: 1, y: 1}
          m_Offset: {x: 0, y: 0}
    m_Floats:
      data:
        first:
          name: _InvFade
        second: 1.04499996
      data:
        first:
          name: _ScrollSpeed
        second: -16
      data:
        first:
          name: _ScrollSpeedX
        second: 14
      data:
        first:
          name: _ScrollSpeedY
        second: 0
    m_Colors:
      data:
        first:
          name: _Color
        second: {r: 1, g: 1, b: 1, a: 1}
      data:
        first:
          name: _TintColor
        second: {r: .501960814, g: .501960814, b: .501960814, a: 1}
