%YAML 1.1
%TAG !u! tag:unity3d.com,2011:
--- !u!21 &2100000
Material:
  serializedVersion: 5
  m_ObjectHideFlags: 0
  m_PrefabParentObject: {fileID: 0}
  m_PrefabInternal: {fileID: 0}
  m_Name: WFX_Demo_M_Concrete Wall
  m_Shader: {fileID: 4, guid: 0000000000000000f000000000000000, type: 0}
  m_ShaderKeywords: 
  m_LightmapFlags: 5
  m_CustomRenderQueue: -1
  m_SavedProperties:
    serializedVersion: 2
    m_TexEnvs:
      data:
        first:
          name: _MainTex
        second:
          m_Texture: {fileID: 2800000, guid: 3795ce9fd3b225244b8149252918c4e9, type: 3}
          m_Scale: {x: 4, y: 1}
          m_Offset: {x: 0, y: 0}
      data:
        first:
          name: _BumpMap
        second:
          m_Texture: {fileID: 2800000, guid: 9ad1b7cbb4464c54ea0514cfe41f9bed, type: 3}
          m_Scale: {x: 4, y: 1}
          m_Offset: {x: 0, y: 0}
    m_Floats:
      data:
        first:
          name: _Shininess
        second: .22827822
    m_Colors:
      data:
        first:
          name: _Color
        second: {r: .611940265, g: .611940265, b: .611940265, a: 1}
      data:
        first:
          name: _SpecColor
        second: {r: .126865685, g: .126865685, b: .126865685, a: 1}
