# Blender MTL File: 'Resident evil.blend'
# Material Count: 5

newmtl Backlight
Ns 96.078431
Ka 0.000000 0.000000 0.000000
Kd 0.640000 0.640000 0.640000
Ks 0.500000 0.500000 0.500000
Ni 1.000000
d 1.000000
illum 2

newmtl Floorlight
Ns 96.078431
Ka 0.000000 0.000000 0.000000
Kd 0.640000 0.640000 0.640000
Ks 0.500000 0.500000 0.500000
Ni 1.000000
d 1.000000
illum 2

newmtl Red_Floor
Ns 96.078431
Ka 0.000000 0.000000 0.000000
Kd 0.640000 0.293167 0.317133
Ks 0.500000 0.500000 0.500000
Ni 1.000000
d 1.000000
illum 2

newmtl Stainless_Steel
Ns 96.078431
Ka 0.000000 0.000000 0.000000
Kd 0.640000 0.640000 0.640000
Ks 0.500000 0.500000 0.500000
Ni 1.000000
d 1.000000
illum 2

newmtl White_Floor
Ns 96.078431
Ka 0.000000 0.000000 0.000000
Kd 0.230637 0.230637 0.230637
Ks 0.500000 0.500000 0.500000
Ni 1.000000
d 1.000000
illum 2
